service_id,date,exception_type
S.540,20190831,1
S.540,20190824,1
S.540,20190817,1
S.540,20190810,1
S.540,20190803,1
S.540,20190727,1
S.540,20190720,1
S.540,20190713,1
S.540,20190706,1
S.540,20190629,1
S.540,20190622,1
S.540,20190615,1
S.540,20190608,1
S.540,20190601,1
S.540,20190525,1
S.540,20190518,1
S.540,20190511,1
S.540,20190504,1
S.540,20190427,1
S.540,20190420,1
S.540,20190413,1
S.540,20190406,1
S.540,20190330,1
S.540,20190323,1
U.540,20190825,1
U.540,20190818,1
U.540,20190811,1
U.540,20190804,1
U.540,20190728,1
U.540,20190721,1
U.540,20190714,1
U.540,20190707,1
U.540,20190630,1
U.540,20190623,1
U.540,20190616,1
U.540,20190609,1
U.540,20190602,1
U.540,20190526,1
U.540,20190519,1
U.540,20190512,1
U.540,20190505,1
U.540,20190428,1
U.540,20190421,1
U.540,20190414,1
U.540,20190407,1
U.540,20190331,1
U.540,20190324,1
U.540,20190317,1
W.540,20190830,1
W.540,20190829,1
W.540,20190828,1
W.540,20190827,1
W.540,20190826,1
W.540,20190823,1
W.540,20190822,1
W.540,20190821,1
W.540,20190820,1
W.540,20190819,1
W.540,20190816,1
W.540,20190815,1
W.540,20190814,1
W.540,20190813,1
W.540,20190812,1
W.540,20190809,1
W.540,20190808,1
W.540,20190807,1
W.540,20190806,1
W.540,20190805,1
W.540,20190802,1
W.540,20190801,1
W.540,20190731,1
W.540,20190730,1
W.540,20190729,1
W.540,20190726,1
W.540,20190725,1
W.540,20190724,1
W.540,20190723,1
W.540,20190722,1
W.540,20190719,1
W.540,20190718,1
W.540,20190717,1
W.540,20190716,1
W.540,20190715,1
W.540,20190712,1
W.540,20190711,1
W.540,20190710,1
W.540,20190709,1
W.540,20190708,1
W.540,20190705,1
W.540,20190704,1
W.540,20190703,1
W.540,20190702,1
W.540,20190701,1
W.540,20190628,1
W.540,20190627,1
W.540,20190626,1
W.540,20190625,1
W.540,20190624,1
W.540,20190621,1
W.540,20190620,1
W.540,20190619,1
W.540,20190618,1
W.540,20190617,1
W.540,20190614,1
W.540,20190613,1
W.540,20190612,1
W.540,20190611,1
W.540,20190610,1
W.540,20190607,1
W.540,20190606,1
W.540,20190605,1
W.540,20190604,1
W.540,20190603,1
W.540,20190531,1
W.540,20190530,1
W.540,20190529,1
W.540,20190528,1
W.540,20190524,1
W.540,20190523,1
W.540,20190522,1
W.540,20190521,1
W.540,20190520,1
W.540,20190517,1
W.540,20190516,1
W.540,20190515,1
W.540,20190514,1
W.540,20190513,1
W.540,20190510,1
W.540,20190509,1
W.540,20190508,1
W.540,20190507,1
W.540,20190506,1
W.540,20190503,1
W.540,20190502,1
W.540,20190501,1
W.540,20190430,1
W.540,20190429,1
W.540,20190426,1
W.540,20190425,1
W.540,20190424,1
W.540,20190423,1
W.540,20190422,1
W.540,20190419,1
W.540,20190418,1
W.540,20190417,1
W.540,20190416,1
W.540,20190415,1
W.540,20190412,1
W.540,20190411,1
W.540,20190410,1
W.540,20190409,1
W.540,20190408,1
W.540,20190405,1
W.540,20190404,1
W.540,20190403,1
W.540,20190402,1
W.540,20190401,1
W.540,20190329,1
W.540,20190328,1
W.540,20190327,1
W.540,20190326,1
W.540,20190325,1
W.540,20190322,1
W.540,20190321,1
W.540,20190320,1
W.540,20190319,1
W.540,20190318,1
X.540,20190527,1
A.540,20190830,1
A.540,20190829,1
A.540,20190828,1
A.540,20190827,1
A.540,20190826,1
A.540,20190823,1
A.540,20190822,1
A.540,20190821,1
A.540,20190820,1
A.540,20190819,1
A.540,20190816,1
A.540,20190815,1
A.540,20190814,1
A.540,20190813,1
A.540,20190812,1
A.540,20190809,1
A.540,20190808,1
A.540,20190807,1
A.540,20190806,1
A.540,20190805,1
A.540,20190802,1
A.540,20190801,1
A.540,20190731,1
A.540,20190730,1
A.540,20190729,1
A.540,20190726,1
A.540,20190725,1
A.540,20190724,1
A.540,20190723,1
A.540,20190722,1
A.540,20190719,1
A.540,20190718,1
A.540,20190717,1
A.540,20190716,1
A.540,20190715,1
A.540,20190712,1
A.540,20190711,1
A.540,20190710,1
A.540,20190709,1
A.540,20190708,1
A.540,20190705,1
A.540,20190704,1
A.540,20190703,1
A.540,20190702,1
A.540,20190701,1
A.540,20190628,1
A.540,20190627,1
A.540,20190626,1
A.540,20190625,1
A.540,20190624,1
A.540,20190621,1
A.540,20190620,1
A.540,20190619,1
A.540,20190618,1
A.540,20190617,1
A.540,20190614,1
A.540,20190613,1
A.540,20190612,1
A.540,20190611,1
A.540,20190610,1
A.540,20190607,1
A.540,20190606,1
A.540,20190605,1
A.540,20190604,1
A.540,20190603,1
A.540,20190531,1
A.540,20190530,1
A.540,20190529,1
A.540,20190528,1
A.540,20190524,1
A.540,20190523,1
A.540,20190522,1
A.540,20190521,1
A.540,20190520,1
A.540,20190517,1
A.540,20190516,1
A.540,20190515,1
A.540,20190514,1
A.540,20190513,1
A.540,20190510,1
A.540,20190509,1
A.540,20190508,1
A.540,20190507,1
A.540,20190506,1
A.540,20190503,1
A.540,20190502,1
A.540,20190501,1
A.540,20190430,1
A.540,20190429,1
A.540,20190426,1
A.540,20190425,1
A.540,20190424,1
A.540,20190423,1
A.540,20190422,1
A.540,20190419,1
A.540,20190418,1
A.540,20190417,1
A.540,20190416,1
A.540,20190415,1
A.540,20190412,1
A.540,20190411,1
A.540,20190410,1
A.540,20190409,1
A.540,20190408,1
A.540,20190405,1
A.540,20190404,1
A.540,20190403,1
A.540,20190402,1
A.540,20190401,1
A.540,20190329,1
A.540,20190328,1
A.540,20190327,1
A.540,20190326,1
A.540,20190325,1
A.540,20190322,1
A.540,20190321,1
A.540,20190320,1
A.540,20190319,1
A.540,20190318,1
B.540,20190831,1
B.540,20190824,1
B.540,20190817,1
B.540,20190810,1
B.540,20190803,1
B.540,20190727,1
B.540,20190720,1
B.540,20190713,1
B.540,20190706,1
B.540,20190629,1
B.540,20190622,1
B.540,20190615,1
B.540,20190608,1
B.540,20190601,1
B.540,20190525,1
B.540,20190518,1
B.540,20190511,1
B.540,20190504,1
B.540,20190427,1
B.540,20190420,1
B.540,20190413,1
B.540,20190406,1
B.540,20190330,1
B.540,20190323,1
C.540,20190825,1
C.540,20190818,1
C.540,20190811,1
C.540,20190804,1
C.540,20190728,1
C.540,20190721,1
C.540,20190714,1
C.540,20190707,1
C.540,20190630,1
C.540,20190623,1
C.540,20190616,1
C.540,20190609,1
C.540,20190602,1
C.540,20190526,1
C.540,20190519,1
C.540,20190512,1
C.540,20190505,1
C.540,20190428,1
C.540,20190421,1
C.540,20190414,1
C.540,20190407,1
C.540,20190331,1
C.540,20190324,1
C.540,20190317,1
7.540,20190830,1
7.540,20190829,1
7.540,20190828,1
7.540,20190827,1
7.540,20190826,1
7.540,20190823,1
7.540,20190822,1
7.540,20190821,1
7.540,20190820,1
7.540,20190819,1
7.540,20190816,1
7.540,20190815,1
7.540,20190814,1
7.540,20190813,1
7.540,20190812,1
7.540,20190809,1
7.540,20190808,1
7.540,20190807,1
7.540,20190806,1
7.540,20190805,1
7.540,20190802,1
7.540,20190801,1
7.540,20190731,1
7.540,20190730,1
7.540,20190729,1
7.540,20190726,1
7.540,20190725,1
7.540,20190724,1
7.540,20190723,1
7.540,20190722,1
7.540,20190719,1
7.540,20190718,1
7.540,20190717,1
7.540,20190716,1
7.540,20190715,1
7.540,20190712,1
7.540,20190711,1
7.540,20190710,1
7.540,20190709,1
7.540,20190708,1
7.540,20190702,1
7.540,20190701,1
7.540,20190628,1
7.540,20190627,1
7.540,20190626,1
7.540,20190625,1
7.540,20190624,1
7.540,20190621,1
7.540,20190620,1
7.540,20190619,1
7.540,20190618,1
7.540,20190617,1
7.540,20190614,1
7.540,20190613,1
7.540,20190612,1
7.540,20190611,1
7.540,20190610,1
7.540,20190607,1
7.540,20190606,1
7.540,20190605,1
7.540,20190604,1
7.540,20190603,1
7.540,20190531,1
7.540,20190530,1
7.540,20190529,1
7.540,20190528,1
7.540,20190524,1
7.540,20190523,1
7.540,20190522,1
7.540,20190521,1
7.540,20190520,1
7.540,20190517,1
7.540,20190516,1
7.540,20190515,1
7.540,20190514,1
7.540,20190513,1
7.540,20190510,1
7.540,20190509,1
7.540,20190508,1
7.540,20190507,1
7.540,20190506,1
7.540,20190503,1
7.540,20190502,1
7.540,20190501,1
7.540,20190430,1
7.540,20190429,1
7.540,20190426,1
7.540,20190425,1
7.540,20190424,1
7.540,20190423,1
7.540,20190422,1
7.540,20190419,1
7.540,20190418,1
7.540,20190417,1
7.540,20190416,1
7.540,20190415,1
7.540,20190412,1
7.540,20190411,1
7.540,20190410,1
7.540,20190409,1
7.540,20190408,1
7.540,20190405,1
7.540,20190404,1
7.540,20190403,1
7.540,20190402,1
7.540,20190401,1
7.540,20190329,1
7.540,20190328,1
7.540,20190327,1
7.540,20190326,1
7.540,20190325,1
7.540,20190322,1
7.540,20190321,1
7.540,20190320,1
7.540,20190319,1
7.540,20190318,1
Y.540,20190527,1
8.540,20190601,1
8.540,20190525,1
8.540,20190518,1
8.540,20190511,1
8.540,20190504,1
8.540,20190427,1
8.540,20190420,1
8.540,20190413,1
8.540,20190406,1
8.540,20190330,1
8.540,20190323,1
9.540,20190825,1
9.540,20190818,1
9.540,20190811,1
9.540,20190804,1
9.540,20190728,1
9.540,20190721,1
9.540,20190714,1
9.540,20190630,1
9.540,20190623,1
9.540,20190616,1
9.540,20190609,1
9.540,20190602,1
9.540,20190526,1
9.540,20190519,1
D.540,20190830,1
D.540,20190829,1
D.540,20190828,1
D.540,20190827,1
D.540,20190826,1
D.540,20190823,1
D.540,20190822,1
D.540,20190821,1
D.540,20190820,1
D.540,20190819,1
D.540,20190816,1
D.540,20190815,1
D.540,20190814,1
D.540,20190813,1
D.540,20190812,1
D.540,20190809,1
D.540,20190808,1
D.540,20190807,1
D.540,20190806,1
D.540,20190805,1
D.540,20190802,1
D.540,20190801,1
D.540,20190731,1
D.540,20190730,1
D.540,20190729,1
D.540,20190726,1
D.540,20190725,1
D.540,20190724,1
D.540,20190723,1
D.540,20190722,1
D.540,20190719,1
D.540,20190718,1
D.540,20190717,1
D.540,20190716,1
D.540,20190715,1
D.540,20190712,1
D.540,20190711,1
D.540,20190710,1
D.540,20190709,1
D.540,20190708,1
D.540,20190705,1
D.540,20190704,1
D.540,20190703,1
D.540,20190702,1
D.540,20190701,1
D.540,20190628,1
D.540,20190627,1
D.540,20190626,1
D.540,20190625,1
D.540,20190624,1
D.540,20190621,1
D.540,20190620,1
D.540,20190619,1
D.540,20190618,1
D.540,20190617,1
D.540,20190614,1
D.540,20190613,1
D.540,20190612,1
D.540,20190611,1
D.540,20190610,1
D.540,20190607,1
D.540,20190606,1
D.540,20190605,1
D.540,20190604,1
D.540,20190603,1
D.540,20190531,1
D.540,20190530,1
D.540,20190529,1
D.540,20190528,1
D.540,20190524,1
D.540,20190523,1
D.540,20190522,1
D.540,20190521,1
D.540,20190520,1
D.540,20190517,1
D.540,20190516,1
D.540,20190515,1
D.540,20190514,1
D.540,20190513,1
D.540,20190510,1
D.540,20190509,1
D.540,20190508,1
D.540,20190507,1
D.540,20190506,1
D.540,20190503,1
D.540,20190502,1
D.540,20190501,1
D.540,20190430,1
D.540,20190429,1
D.540,20190426,1
D.540,20190425,1
D.540,20190424,1
D.540,20190423,1
D.540,20190422,1
D.540,20190419,1
D.540,20190418,1
D.540,20190417,1
D.540,20190416,1
D.540,20190415,1
D.540,20190412,1
D.540,20190411,1
D.540,20190410,1
D.540,20190409,1
D.540,20190408,1
D.540,20190405,1
D.540,20190404,1
D.540,20190403,1
D.540,20190402,1
D.540,20190401,1
D.540,20190329,1
D.540,20190328,1
D.540,20190327,1
D.540,20190326,1
D.540,20190325,1
D.540,20190322,1
D.540,20190321,1
D.540,20190320,1
D.540,20190319,1
D.540,20190318,1
E.540,20190831,1
E.540,20190824,1
E.540,20190817,1
E.540,20190810,1
E.540,20190803,1
E.540,20190727,1
E.540,20190720,1
E.540,20190713,1
E.540,20190706,1
E.540,20190629,1
E.540,20190622,1
E.540,20190615,1
E.540,20190608,1
E.540,20190601,1
E.540,20190525,1
E.540,20190518,1
E.540,20190511,1
E.540,20190504,1
E.540,20190427,1
E.540,20190420,1
E.540,20190413,1
E.540,20190406,1
E.540,20190330,1
E.540,20190323,1
F.540,20190825,1
F.540,20190818,1
F.540,20190811,1
F.540,20190804,1
F.540,20190728,1
F.540,20190721,1
F.540,20190714,1
F.540,20190707,1
F.540,20190630,1
F.540,20190623,1
F.540,20190616,1
F.540,20190609,1
F.540,20190602,1
F.540,20190526,1
F.540,20190519,1
F.540,20190512,1
F.540,20190505,1
F.540,20190428,1
F.540,20190421,1
F.540,20190414,1
F.540,20190407,1
F.540,20190331,1
F.540,20190324,1
F.540,20190317,1
P.540,20190830,1
P.540,20190823,1
P.540,20190816,1
P.540,20190809,1
P.540,20190802,1
P.540,20190726,1
P.540,20190719,1
P.540,20190712,1
P.540,20190705,1
P.540,20190628,1
P.540,20190621,1
P.540,20190614,1
P.540,20190607,1
P.540,20190531,1
P.540,20190524,1
P.540,20190517,1
P.540,20190510,1
P.540,20190503,1
P.540,20190426,1
P.540,20190419,1
P.540,20190412,1
P.540,20190405,1
P.540,20190329,1
P.540,20190322,1
Q.540,20190830,1
Q.540,20190829,1
Q.540,20190828,1
Q.540,20190827,1
Q.540,20190826,1
Q.540,20190823,1
Q.540,20190822,1
Q.540,20190821,1
Q.540,20190820,1
Q.540,20190819,1
Q.540,20190816,1
Q.540,20190815,1
Q.540,20190814,1
Q.540,20190813,1
Q.540,20190812,1
Q.540,20190809,1
Q.540,20190808,1
Q.540,20190807,1
Q.540,20190806,1
Q.540,20190805,1
Q.540,20190802,1
Q.540,20190801,1
Q.540,20190731,1
Q.540,20190730,1
Q.540,20190729,1
Q.540,20190726,1
Q.540,20190725,1
Q.540,20190724,1
Q.540,20190723,1
Q.540,20190722,1
Q.540,20190719,1
Q.540,20190718,1
Q.540,20190717,1
Q.540,20190716,1
Q.540,20190715,1
Q.540,20190712,1
Q.540,20190711,1
Q.540,20190710,1
Q.540,20190709,1
Q.540,20190708,1
Q.540,20190705,1
Q.540,20190704,1
Q.540,20190703,1
Q.540,20190702,1
Q.540,20190701,1
Q.540,20190628,1
Q.540,20190627,1
Q.540,20190626,1
Q.540,20190625,1
Q.540,20190624,1
Q.540,20190621,1
Q.540,20190620,1
Q.540,20190619,1
Q.540,20190618,1
Q.540,20190617,1
Q.540,20190614,1
Q.540,20190613,1
Q.540,20190612,1
Q.540,20190611,1
Q.540,20190610,1
Q.540,20190607,1
Q.540,20190606,1
Q.540,20190605,1
Q.540,20190604,1
Q.540,20190603,1
Q.540,20190531,1
Q.540,20190530,1
Q.540,20190529,1
Q.540,20190528,1
Q.540,20190524,1
Q.540,20190523,1
Q.540,20190522,1
Q.540,20190521,1
Q.540,20190520,1
Q.540,20190517,1
Q.540,20190516,1
Q.540,20190515,1
Q.540,20190514,1
Q.540,20190513,1
Q.540,20190510,1
Q.540,20190509,1
Q.540,20190508,1
Q.540,20190507,1
Q.540,20190506,1
Q.540,20190503,1
Q.540,20190502,1
Q.540,20190501,1
Q.540,20190430,1
Q.540,20190429,1
Q.540,20190426,1
Q.540,20190425,1
Q.540,20190424,1
Q.540,20190423,1
Q.540,20190422,1
Q.540,20190419,1
Q.540,20190418,1
Q.540,20190417,1
Q.540,20190416,1
Q.540,20190415,1
Q.540,20190412,1
Q.540,20190411,1
Q.540,20190410,1
Q.540,20190409,1
Q.540,20190408,1
Q.540,20190405,1
Q.540,20190404,1
Q.540,20190403,1
Q.540,20190402,1
Q.540,20190401,1
Q.540,20190329,1
Q.540,20190328,1
Q.540,20190327,1
Q.540,20190326,1
Q.540,20190325,1
Q.540,20190322,1
Q.540,20190321,1
Q.540,20190320,1
Q.540,20190319,1
Q.540,20190318,1
p.540,20190829,1
p.540,20190828,1
p.540,20190827,1
p.540,20190826,1
p.540,20190822,1
p.540,20190821,1
p.540,20190820,1
p.540,20190819,1
p.540,20190815,1
p.540,20190814,1
p.540,20190813,1
p.540,20190812,1
p.540,20190808,1
p.540,20190807,1
p.540,20190806,1
p.540,20190805,1
p.540,20190801,1
p.540,20190731,1
p.540,20190730,1
p.540,20190729,1
p.540,20190725,1
p.540,20190724,1
p.540,20190723,1
p.540,20190722,1
p.540,20190718,1
p.540,20190717,1
p.540,20190716,1
p.540,20190715,1
p.540,20190711,1
p.540,20190710,1
p.540,20190709,1
p.540,20190708,1
p.540,20190704,1
p.540,20190703,1
p.540,20190702,1
p.540,20190701,1
p.540,20190627,1
p.540,20190626,1
p.540,20190625,1
p.540,20190624,1
p.540,20190620,1
p.540,20190619,1
p.540,20190618,1
p.540,20190617,1
p.540,20190613,1
p.540,20190612,1
p.540,20190611,1
p.540,20190610,1
p.540,20190606,1
p.540,20190605,1
p.540,20190604,1
p.540,20190603,1
p.540,20190530,1
p.540,20190529,1
p.540,20190528,1
p.540,20190523,1
p.540,20190522,1
p.540,20190521,1
p.540,20190520,1
p.540,20190516,1
p.540,20190515,1
p.540,20190514,1
p.540,20190513,1
p.540,20190509,1
p.540,20190508,1
p.540,20190507,1
p.540,20190506,1
p.540,20190502,1
p.540,20190501,1
p.540,20190430,1
p.540,20190429,1
p.540,20190425,1
p.540,20190424,1
p.540,20190423,1
p.540,20190422,1
p.540,20190418,1
p.540,20190417,1
p.540,20190416,1
p.540,20190415,1
p.540,20190411,1
p.540,20190410,1
p.540,20190409,1
p.540,20190408,1
p.540,20190404,1
p.540,20190403,1
p.540,20190402,1
p.540,20190401,1
p.540,20190328,1
p.540,20190327,1
p.540,20190326,1
p.540,20190325,1
p.540,20190321,1
p.540,20190320,1
p.540,20190319,1
p.540,20190318,1
W.535,20190315,1
W.535,20190314,1
W.535,20190313,1
W.535,20190312,1
W.535,20190311,1
W.535,20190308,1
W.535,20190307,1
W.535,20190306,1
W.535,20190305,1
W.535,20190304,1
S.535,20190316,1
S.535,20190309,1
U.535,20190310,1
U.535,20190303,1
C.535,20190310,1
C.535,20190303,1
B.535,20190316,1
B.535,20190309,1
E.535,20190316,1
E.535,20190309,1
F.535,20190310,1
F.535,20190303,1
A.535,20190315,1
A.535,20190314,1
A.535,20190313,1
A.535,20190312,1
A.535,20190311,1
A.535,20190308,1
A.535,20190307,1
A.535,20190306,1
A.535,20190305,1
A.535,20190304,1
7.535,20190315,1
7.535,20190314,1
7.535,20190313,1
7.535,20190312,1
7.535,20190311,1
7.535,20190308,1
7.535,20190307,1
7.535,20190306,1
7.535,20190305,1
7.535,20190304,1
D.535,20190315,1
D.535,20190314,1
D.535,20190313,1
D.535,20190312,1
D.535,20190311,1
D.535,20190308,1
D.535,20190307,1
D.535,20190306,1
D.535,20190305,1
D.535,20190304,1
P.535,20190315,1
P.535,20190308,1
Q.535,20190315,1
Q.535,20190314,1
Q.535,20190313,1
Q.535,20190312,1
Q.535,20190311,1
Q.535,20190308,1
Q.535,20190307,1
Q.535,20190306,1
Q.535,20190305,1
Q.535,20190304,1
p.535,20190314,1
p.535,20190313,1
p.535,20190312,1
p.535,20190311,1
p.535,20190307,1
p.535,20190306,1
p.535,20190305,1
p.535,20190304,1
8.535,20190316,1
8.535,20190309,1
